%YAML 1.1
%TAG !u! tag:unity3d.com,2011:
--- !u!114 &11400000
MonoBehaviour:
  m_ObjectHideFlags: 0
  m_CorrespondingSourceObject: {fileID: 0}
  m_PrefabInstance: {fileID: 0}
  m_PrefabAsset: {fileID: 0}
  m_GameObject: {fileID: 0}
  m_Enabled: 1
  m_EditorHideFlags: 0
  m_Script: {fileID: 11500000, guid: ec03ecb9bd60448ca7d84b093e6f7fc2, type: 3}
  m_Name: RifleWeapon_Medium
  m_EditorClassIdentifier: 
  Damage: 50
  FireRate: 1
  Force: 35
  LifeTime: 2
  Bullet: {fileID: 3498492308258075779, guid: e8bfc1d8163fbd748aa233625ae16715, type: 3}
  ParticleCollide: {fileID: 0}
