%YAML 1.1
%TAG !u! tag:unity3d.com,2011:
--- !u!114 &11400000
MonoBehaviour:
  m_ObjectHideFlags: 0
  m_CorrespondingSourceObject: {fileID: 0}
  m_PrefabInstance: {fileID: 0}
  m_PrefabAsset: {fileID: 0}
  m_GameObject: {fileID: 0}
  m_Enabled: 1
  m_EditorHideFlags: 0
  m_Script: {fileID: 11500000, guid: 1e8d5db1ee324c47a3921d0bb897eb4c, type: 3}
  m_Name: ShotgunWeapon_Light
  m_EditorClassIdentifier: 
  Damage: 15
  FireRate: 1
  CountProjectiles: 6
  EurlerOffset: 10
  Force: 15
  LifeTime: 1
  Bullet: {fileID: 3498492308258075779, guid: 59025ca7ba4181741a95b1b17c8f38e4, type: 3}
  ParticleCollide: {fileID: 0}
