%YAML 1.1
%TAG !u! tag:unity3d.com,2011:
--- !u!1001 &7830733479511790710
PrefabInstance:
  m_ObjectHideFlags: 0
  serializedVersion: 2
  m_Modification:
    m_TransformParent: {fileID: 0}
    m_Modifications:
    - target: {fileID: 974610811006191446, guid: 3958ab4d4f3fe7a43ad26fdcfa91e2c3, type: 3}
      propertyPath: m_Layer
      value: 7
      objectReference: {fileID: 0}
    - target: {fileID: 3435858275242151528, guid: 3958ab4d4f3fe7a43ad26fdcfa91e2c3, type: 3}
      propertyPath: m_RootOrder
      value: 0
      objectReference: {fileID: 0}
    - target: {fileID: 3435858275242151528, guid: 3958ab4d4f3fe7a43ad26fdcfa91e2c3, type: 3}
      propertyPath: m_LocalPosition.x
      value: 0
      objectReference: {fileID: 0}
    - target: {fileID: 3435858275242151528, guid: 3958ab4d4f3fe7a43ad26fdcfa91e2c3, type: 3}
      propertyPath: m_LocalPosition.y
      value: 0
      objectReference: {fileID: 0}
    - target: {fileID: 3435858275242151528, guid: 3958ab4d4f3fe7a43ad26fdcfa91e2c3, type: 3}
      propertyPath: m_LocalPosition.z
      value: 0
      objectReference: {fileID: 0}
    - target: {fileID: 3435858275242151528, guid: 3958ab4d4f3fe7a43ad26fdcfa91e2c3, type: 3}
      propertyPath: m_LocalRotation.w
      value: 1
      objectReference: {fileID: 0}
    - target: {fileID: 3435858275242151528, guid: 3958ab4d4f3fe7a43ad26fdcfa91e2c3, type: 3}
      propertyPath: m_LocalRotation.x
      value: 0
      objectReference: {fileID: 0}
    - target: {fileID: 3435858275242151528, guid: 3958ab4d4f3fe7a43ad26fdcfa91e2c3, type: 3}
      propertyPath: m_LocalRotation.y
      value: 0
      objectReference: {fileID: 0}
    - target: {fileID: 3435858275242151528, guid: 3958ab4d4f3fe7a43ad26fdcfa91e2c3, type: 3}
      propertyPath: m_LocalRotation.z
      value: 0
      objectReference: {fileID: 0}
    - target: {fileID: 3435858275242151528, guid: 3958ab4d4f3fe7a43ad26fdcfa91e2c3, type: 3}
      propertyPath: m_LocalEulerAnglesHint.x
      value: 0
      objectReference: {fileID: 0}
    - target: {fileID: 3435858275242151528, guid: 3958ab4d4f3fe7a43ad26fdcfa91e2c3, type: 3}
      propertyPath: m_LocalEulerAnglesHint.y
      value: 0
      objectReference: {fileID: 0}
    - target: {fileID: 3435858275242151528, guid: 3958ab4d4f3fe7a43ad26fdcfa91e2c3, type: 3}
      propertyPath: m_LocalEulerAnglesHint.z
      value: 0
      objectReference: {fileID: 0}
    - target: {fileID: 3942583468514567661, guid: 3958ab4d4f3fe7a43ad26fdcfa91e2c3, type: 3}
      propertyPath: m_Radius
      value: 2
      objectReference: {fileID: 0}
    - target: {fileID: 4883463976123000983, guid: 3958ab4d4f3fe7a43ad26fdcfa91e2c3, type: 3}
      propertyPath: m_Name
      value: MeleeBullet
      objectReference: {fileID: 0}
    - target: {fileID: 4883463976123000983, guid: 3958ab4d4f3fe7a43ad26fdcfa91e2c3, type: 3}
      propertyPath: m_Layer
      value: 7
      objectReference: {fileID: 0}
    m_RemovedComponents: []
  m_SourcePrefab: {fileID: 100100000, guid: 3958ab4d4f3fe7a43ad26fdcfa91e2c3, type: 3}
