{
    "name": "PlayerActionsConfiguration",
    "maps": [
        {
            "name": "Main",
            "id": "19297175-b397-48b7-8c45-10403e74a360",
            "actions": [
                {
                    "name": "Move",
                    "type": "Value",
                    "id": "d8a017aa-2ea6-424b-9a66-5b192420afd4",
                    "expectedControlType": "Vector2",
                    "processors": "",
                    "interactions": ""
                },
                {
                    "name": "Fire",
                    "type": "Button",
                    "id": "53211caa-b6f0-42c9-80aa-0d1480b42648",
                    "expectedControlType": "Button",
                    "processors": "",
                    "interactions": ""
                },
                {
                    "name": "WeaponNext",
                    "type": "Button",
                    "id": "d71e0e02-fb6b-4699-96be-cefdf1f861d5",
                    "expectedControlType": "Button",
                    "processors": "",
                    "interactions": ""
                },
                {
                    "name": "WeaponLast",
                    "type": "Button",
                    "id": "81e96fc9-4da6-49cb-8914-00fcef6c2163",
                    "expectedControlType": "Button",
                    "processors": "",
                    "interactions": ""
                }
            ],
            "bindings": [
                {
                    "name": "Keyboard",
                    "id": "eaee42cf-5cd4-4b3f-8b01-af4801109b2f",
                    "path": "2DVector",
                    "interactions": "",
                    "processors": "",
                    "groups": "",
                    "action": "Move",
                    "isComposite": true,
                    "isPartOfComposite": false
                },
                {
                    "name": "up",
                    "id": "7846e8c2-203e-4eed-9adb-641f6f10344f",
                    "path": "<Keyboard>/upArrow",
                    "interactions": "",
                    "processors": "",
                    "groups": "",
                    "action": "Move",
                    "isComposite": false,
                    "isPartOfComposite": true
                },
                {
                    "name": "down",
                    "id": "1544c54f-21a5-41bd-8bba-8c52b011a8cc",
                    "path": "<Keyboard>/downArrow",
                    "interactions": "",
                    "processors": "",
                    "groups": "",
                    "action": "Move",
                    "isComposite": false,
                    "isPartOfComposite": true
                },
                {
                    "name": "left",
                    "id": "871ef209-a34c-4255-8b88-c2d19115ea8a",
                    "path": "<Keyboard>/leftArrow",
                    "interactions": "",
                    "processors": "",
                    "groups": "",
                    "action": "Move",
                    "isComposite": false,
                    "isPartOfComposite": true
                },
                {
                    "name": "right",
                    "id": "85d03d77-dbc1-4cb5-998c-6b1fa2b3980a",
                    "path": "<Keyboard>/rightArrow",
                    "interactions": "",
                    "processors": "",
                    "groups": "",
                    "action": "Move",
                    "isComposite": false,
                    "isPartOfComposite": true
                },
                {
                    "name": "",
                    "id": "84354a95-e75e-4155-ad4b-1efc915a25d9",
                    "path": "<Keyboard>/x",
                    "interactions": "",
                    "processors": "",
                    "groups": "",
                    "action": "Fire",
                    "isComposite": false,
                    "isPartOfComposite": false
                },
                {
                    "name": "",
                    "id": "a0b243af-eace-4263-85ca-b0f270490013",
                    "path": "<Keyboard>/w",
                    "interactions": "",
                    "processors": "",
                    "groups": "",
                    "action": "WeaponNext",
                    "isComposite": false,
                    "isPartOfComposite": false
                },
                {
                    "name": "",
                    "id": "1e680394-af5a-4634-bf94-3dcd83117c73",
                    "path": "<Keyboard>/q",
                    "interactions": "",
                    "processors": "",
                    "groups": "",
                    "action": "WeaponLast",
                    "isComposite": false,
                    "isPartOfComposite": false
                }
            ]
        }
    ],
    "controlSchemes": []
}